%!PS-Adobe-3.0 EPSF-3.0
%%BoundingBox: 1 1 600 624

/C { dup 255 and 255 div exch dup -8 bitshift 255 and 255 div 3 1 roll -16 bitshift 255 and 255 div 3 1 roll setrgbcolor } bind def
/L { 4 2 roll moveto lineto } bind def
/LX { dup 4 -1 roll exch moveto lineto } bind def
/LY { dup 4 -1 roll moveto exch lineto } bind def
/LS { 3 1 roll moveto show } bind def
/MS { dup stringwidth pop 2 div 4 -1 roll exch sub 3 -1 roll moveto show } bind def
/RS { dup stringwidth pop 4 -1 roll exch sub 3 -1 roll moveto show } bind def
/B { 4 copy 3 1 roll exch 6 2 roll 8 -2 roll moveto lineto lineto lineto closepath } bind def
0.2 setlinewidth

/FS 11 def
/FS4 FS 4 div def
/Helvetica-Narrow findfont FS scalefont setfont

0.8 setgray
300 5.5 (NC_000913.3) MS
stroke
gsave 13.75 0 translate 90 rotate
312.175 0 (utg000001l) MS
grestore
stroke
0.1 setlinewidth
1 600 1 LX
1 600 624 LX
1 624 1 LY
1 624 600 LY
stroke
0.1 setlinewidth
stroke 16711680 C
399.267 0.00400495 476.68 80.7968 L
149.254 363.957 228.923 446.797 L
33.1922 243.026 102.723 315.26 L
299.994 520.218 364.452 587.372 L
228.63 446.485 282.389 501.747 L
102.626 315.155 141.873 356.069 L
567.784 175.219 599.995 208.676 L
495.811 101.533 521.977 127.81 L
10.4354 219.404 34.0128 243.891 L
476.486 80.5617 498.031 102.931 L
531.288 137.444 551.627 158.491 L
364.461 587.483 383.105 606.911 L
283.14 502.581 299.995 520.219 L
551.276 158.088 568.438 175.898 L
0.00193896 208.683 11.0487 220.052 L
521.663 127.483 531.449 137.662 L
389.396 613.548 399.4 623.997 L
140.846 354.994 149.259 363.975 L
383.01 606.804 390.609 614.806 L
282.189 501.527 283.965 503.468 L
352.384 45.2203 353.059 45.9647 L
442.532 574.672 443.234 575.387 L
521.605 144.916 522.337 145.659 L
543.925 238.601 544.612 239.325 L
538.589 238.63 539.282 239.325 L
521.639 238.63 522.333 239.325 L
509.49 144.916 510.178 145.626 L
509.524 238.63 510.195 239.337 L
28.9272 144.964 29.5801 145.626 L
28.8938 150.504 29.5863 151.215 L
538.563 114.78 539.282 115.505 L
543.957 114.813 544.612 115.505 L
509.518 150.52 510.184 151.215 L
538.583 150.52 539.282 151.215 L
521.613 114.78 522.333 115.505 L
521.633 150.52 522.333 151.215 L
467.849 90.7143 468.482 91.3233 L
486.32 71.5307 486.775 72.0035 L
28.9194 114.813 29.6002 115.519 L
94.3009 90.6869 95.0205 91.4444 L
538.863 127.82 539.265 128.215 L
544.215 127.82 544.59 128.188 L
94.3133 71.5307 94.7685 72.0035 L
29.189 127.82 29.5639 128.188 L
509.787 127.82 510.161 128.188 L
538.554 127.42 538.926 127.81 L
509.488 127.419 509.85 127.81 L
94.8994 71.8926 95.3861 72.3689 L
28.9128 127.456 29.2524 127.81 L
543.951 127.456 544.278 127.81 L
581.457 259.86 581.616 260.023 L
411.852 259.86 412.01 260.023 L
141.451 261.271 141.598 261.423 L
387.323 406.118 387.47 406.27 L
387.331 486.211 387.495 486.38 L
189.757 486.211 189.92 486.38 L
280.531 250.996 280.687 251.162 L
73.269 250.996 73.4256 251.162 L
189.93 244.914 190.072 245.065 L
78.594 546.256 78.7667 546.443 L
467.834 306.536 468.306 307.014 L
1.98951 546.256 2.16208 546.443 L
197.515 279.282 197.688 279.459 L
473.916 419.973 474.094 420.158 L
50.637 355.678 50.796 355.846 L
67.9292 414.212 68.1017 414.388 L
325.016 290.263 325.178 290.43 L
1.9992 290.263 2.16078 290.43 L
468.207 307.156 468.641 307.624 L
197.998 72.2118 198.15 72.3689 L
325.007 210.736 325.179 210.913 L
78.595 210.736 78.7667 210.913 L
267.44 406.118 267.588 406.27 L
49.2999 189.389 49.455 189.546 L
468.492 414.719 468.651 414.886 L
411.865 189.389 412.02 189.546 L
203.034 77.8332 203.216 78.0296 L
73.269 499.758 73.4264 499.926 L
40.7524 499.758 40.9091 499.925 L
198.005 307.478 198.147 307.624 L
95.2345 414.719 95.3852 414.878 L
40.7608 284.833 40.9058 284.975 L
280.539 284.833 280.684 284.975 L
581.46 13.1542 581.625 13.3267 L
49.2893 13.1542 49.4545 13.3267 L
34.9717 406.303 35.128 406.464 L
stroke
stroke 33023 C
522.328 45.2013 521.632 45.9647 L
29.5843 45.2203 28.8959 45.977 L
539.286 574.661 538.568 575.403 L
539.277 45.2013 538.583 45.9647 L
510.182 45.2203 509.517 45.9647 L
544.61 45.2203 543.934 45.977 L
443.238 238.619 442.558 239.324 L
544.683 574.65 543.945 575.387 L
522.336 574.661 521.617 575.403 L
353.08 144.923 352.378 145.659 L
510.178 574.672 509.502 575.403 L
443.222 144.956 442.499 145.659 L
353.053 238.63 352.382 239.325 L
29.5801 574.672 28.9078 575.387 L
443.246 150.507 442.558 151.215 L
353.078 114.78 352.382 115.505 L
353.058 150.52 352.382 151.215 L
443.223 114.813 442.558 115.504 L
352.78 127.82 352.405 128.188 L
442.954 127.82 442.579 128.188 L
443.229 127.456 442.891 127.81 L
211.343 401.377 211.034 401.7 L
353.083 127.425 352.716 127.81 L
189.917 259.86 189.758 260.023 L
280.684 261.271 280.536 261.423 L
387.491 259.86 387.332 260.023 L
412.02 406.118 411.873 406.27 L
267.609 259.86 267.45 260.023 L
40.9058 261.271 40.7582 261.423 L
49.4463 486.211 49.2841 486.379 L
73.4224 261.271 73.2748 261.423 L
412.012 486.211 411.848 486.38 L
581.617 486.211 581.454 486.38 L
185.446 428.393 185.092 428.751 L
73.4234 355.678 73.2644 355.846 L
50.7914 250.996 50.6348 251.162 L
141.604 250.996 141.448 251.162 L
280.685 355.678 280.526 355.846 L
582.808 244.914 582.667 245.065 L
40.9069 355.678 40.7479 355.846 L
539.947 51.4954 539.813 51.6344 L
448.712 146.217 448.571 146.367 L
49.455 406.118 49.3075 406.27 L
581.626 406.118 581.479 406.27 L
50.7914 499.758 50.634 499.926 L
387.478 189.389 387.323 189.546 L
189.904 189.389 189.749 189.546 L
267.595 189.389 267.44 189.546 L
141.604 499.758 141.447 499.926 L
50.783 284.833 50.638 284.975 L
190.085 190.593 189.939 190.745 L
141.596 284.833 141.451 284.975 L
387.488 13.1542 387.323 13.3267 L
35.1289 190.593 34.9824 190.745 L
189.914 13.1542 189.749 13.3267 L
267.606 13.1542 267.441 13.3267 L
582.811 406.303 582.655 406.464 L
75.145 428.805 75.0142 428.936 L
stroke
stroke showpage
